…
delta(pivoted_flow_sample, "maximum", "minimum")
#> # A tibble: 11,663 x 2
#> # Groups:   year [109]
#>     year col_delta
#>    <dbl>     <dbl>
#>  1  1909      258.
#>  2  1909      168.
#>  3  1909      226.
#>  4  1909      207.
#>  5  1909      229.
#>  6  1909      302.
#>  7  1909      168.
#>  8  1909      339.
#>  9  1909      180.
#> 10  1909      242.
#> # ... with 11,653 more rows
```
…
